Develop a Model-Agnostic Interpretable Data-driven suRRogate in R with maidrr • maidrr
…
The output is a named list of tibble objects containing the effects, one for each feature and interaction:

class(fx_vars_be)
#> [1] "list"
names(fx_vars_be)
#>  [1] "ageph"       "power"       "bm"          "agec"        "coverage"   
#>  [6] "fuel"        "sex"         "fleet"       "use"         "bm_agec"    
#> [11] "ageph_power" "power_bm"    "power_agec"

The tibble for a main effect has 3 columns with standardized names x, y, w containing the feature value, the effect and the number of observations counts in data respectively:

fx_vars_be[['ageph']]
#> # A tibble: 78 x 3
#>        x     y     w
#>    <int> <dbl> <dbl>
#>  1    18 0.184    16
#>  2    19 0.184   116
#>  3    20 0.184   393
#>  4    21 0.176   700
#>  5    22 0.171   952
#>  6    23 0.171  1379
#>  7    24 0.170  2028
#>  8    25 0.168  2672
#>  9    26 0.166  2941
#> 10    27 0.160  3130
#> # … with 68 more rows

The tibble for an interaction effect has 4 columns with standardized names x1, x2, y, w containing the feature values, the effect and the number of observations counts in data respectively:

fx_vars_be[['bm_agec']]
#> # A tibble: 1,127 x 4
#>       x1    x2      y     w
#>    <int> <int>  <dbl> <dbl>
#>  1     0     0 0.0161    85
#>  2     0     1 0.0147  3356
#>  3     0     2 0.0162  5509
#>  4     0     3 0.0162  5024
#>  5     0     4 0.0157  5065
#>  6     0     5 0.0155  4996
#>  7     0     6 0.0148  5795
#>  8     0     7 0.0139  5283
#>  9     0     8 0.0132  5321
#> 10     0     9 0.0131  4624
#> # … with 1,117 more rows
…
#>        bm_agec_2         bm_agec_3         bm_agec_5     ageph_power_1  
#>        -0.545768         -0.134153          0.154437         -0.211970  
#>    ageph_power_3     ageph_power_4     ageph_power_5        power_bm_1  
#>         0.064931          0.560979          0.808275         -0.153419  
#>       power_bm_2        power_bm_4        power_bm_5        power_bm_6  
#>        -0.075525         -0.043317          0.103786         -0.251433  
#>       power_bm_7  
#>        -0.002169  
#> 
#> Degrees of Freedom: 163211 Total (i.e. Null);  163167 Residual
#> Null Deviance:       89880 
#> Residual Deviance: 86980     AIC: 124800
#> 
#> $tune_main
#> # A tibble: 53 x 16
#>    lambda_main ageph power    bm  agec coverage  fuel   sex fleet   use   `1`
#>          <dbl> <int> <int> <int> <int>    <int> <int> <int> <int> <int> <dbl>
#>  1  0.000008       8     9    12     5        1     2     1     1     1 0.535
#>  2  0.0000082      7     8    12     5        1     2     1     1     1 0.535
#>  3  0.0000052      9    10    12     6        2     2     1     1     1 0.535
#>  4  0.00000500    10    10    12     6        2     2     1     1     1 0.535
#>  5  0.0000045     14    11    12     6        2     2     1     1     1 0.535
#>  6  0.0000048     14    10    12     6        2     2     1     1     1 0.535
#>  7  0.0000072      8    10    12     5        1     2     1     1     1 0.535
#>  8  0.000010       6     7    12     4        1     2     1     1     1 0.535
#>  9  0.0000061      8    10    12     6        1     2     1     1     1 0.535
#> 10  0.00000950     7     7    12     4        1     2     1     1     1 0.535
#> # … with 43 more rows, and 5 more variables: `2` <dbl>, `3` <dbl>, `4` <dbl>,
#> #   `5` <dbl>, cv_err <dbl>
#> 
#> $tune_intr
#> # A tibble: 37 x 10
#>    lambda_intr bm_agec ageph_power power_bm   `1`   `2`   `3`   `4`   `5` cv_err
#>          <dbl>   <int>       <int>    <int> <dbl> <dbl> <dbl> <dbl> <dbl>  <dbl>
#>  1    0.000029       5           5        7 0.535 0.534 0.533 0.533 0.533  0.534
#>  2    0.00003        5           5        6 0.535 0.534 0.533 0.533 0.533  0.534
#>  3    0.000041       5           4        6 0.535 0.534 0.533 0.533 0.533  0.534
#>  4    0.000058       5           4        4 0.535 0.534 0.533 0.533 0.533  0.534
#>  5    0.00006        5           3        4 0.535 0.534 0.533 0.533 0.533  0.534
#>  6    0.000043       5           4        5 0.535 0.534 0.533 0.533 0.533  0.534
#>  7    0.000086       5           2        4 0.535 0.534 0.533 0.533 0.533  0.534
#>  8    0.000096       3           2        4 0.535 0.534 0.533 0.533 0.533  0.534
#>  9    0.000025       6           7        7 0.535 0.534 0.533 0.534 0.533  0.534
#> 10    0.000018       7           7        8 0.535 0.534 0.533 0.534 0.533  0.534
#> # … with 27 more rows
…
